{
	"project": {
		"name": "_B_PROJECT_NAME",
		"id": "_B_THEME_NAME",
		"package": "_B_PACKAGE_NAME",
		"author": {
			"name": "_B_AUTHOR_NAME",
			"url": "_B_AUTHOR_URL"
		},
		"database": {
			"prefix": "wp_"
		},
		"is_multisite": false
	},
	"tasks": {
		"pot": {
			"files": ["**/*.php", "!vendor/**/*", "!node_modules/**/*"],
			"dist": "./languages/"
		},
		"mo": {
			"files": "./languages/*.po",
			"dist": "./languages/"
		},
		"setup": {
			"wpconfig": "./tools/gulp/templates/wpconfig",
			"htaccess": "./tools/gulp/templates/htaccess",
			"tmp": "./tools/gulp/tmp"
		}
	}
}
